<svg width="77" height="77" viewBox="0 0 77 77" fill="none" xmlns="http://www.w3.org/2000/svg">
<path d="M0 12.32C0 5.51585 5.51585 0 12.32 0H64.68C71.4841 0 77 5.51585 77 12.32V64.68C77 71.4841 71.4841 77 64.68 77H12.32C5.51585 77 0 71.4841 0 64.68V12.32Z" fill="#0D6EFD"/>
<path fill-rule="evenodd" clip-rule="evenodd" d="M20.7995 33.1709H17.5918C19.5311 25.539 25.5392 19.5309 33.1711 17.5916V20.7998C27.2499 22.5798 22.5797 27.2498 20.7995 33.1709ZM20.7995 43.829H17.5918C19.5311 51.461 25.5392 57.4691 33.1711 59.4084V56.2003C27.2499 54.4202 22.5797 49.7502 20.7995 43.829ZM43.8292 56.1999V59.4084C51.4612 57.4691 57.4693 51.461 59.4086 43.829H56.1996C54.4195 49.7498 49.7499 54.4196 43.8292 56.1999ZM56.1996 33.1709H59.4086C57.4693 25.5389 51.4612 19.5308 43.8292 17.5916V20.8002C49.7498 22.5805 54.4195 27.2502 56.1996 33.1709Z" fill="white"/>
<path fill-rule="evenodd" clip-rule="evenodd" d="M43.4013 26.6687C43.911 26.8806 44.4126 27.1277 44.9028 27.4107C45.3931 27.6938 45.8578 28.0046 46.2962 28.3401L45.28 29.6677C44.8989 29.376 44.4943 29.1054 44.0669 28.8586C43.6394 28.6118 43.2028 28.3968 42.7596 28.2126L43.4013 26.6687ZM36.8285 25.8042C37.9298 25.6584 39.0539 25.6549 40.1718 25.8016L39.9542 27.4592C38.9832 27.3318 38.006 27.3348 37.0479 27.4616L36.8285 25.8042ZM48.6619 30.7034C49.3479 31.5981 49.9069 32.5734 50.3313 33.6001L48.7862 34.2388C48.417 33.3456 47.931 32.4978 47.3351 31.7206L48.6619 30.7034ZM30.7037 28.3386C31.5984 27.6526 32.5737 27.0936 33.6004 26.6692L34.2391 28.2142C33.3459 28.5835 32.4981 29.0695 31.7209 29.6654L30.7037 28.3386ZM51.1962 36.8282C51.342 37.9295 51.3456 39.0536 51.1989 40.1715L49.5412 39.9539C49.6687 38.9829 49.6657 38.0057 49.5388 37.0476L51.1962 36.8282ZM27.411 32.0976C27.6941 31.6074 28.0049 31.1426 28.3404 30.7043L29.668 31.7205C29.3763 32.1016 29.1057 32.5061 28.8589 32.9336C28.6121 33.361 28.3971 33.7977 28.2129 34.2408L26.669 33.5992C26.8809 33.0894 27.128 32.5879 27.411 32.0976ZM50.3317 43.401C50.1199 43.9107 49.8728 44.4123 49.5897 44.9025C49.3067 45.3928 48.9959 45.8575 48.6603 46.2959L47.3328 45.2797C47.6245 44.8986 47.8951 44.494 48.1419 44.0666C48.3886 43.6391 48.6037 43.2025 48.7879 42.7593L50.3317 43.401ZM25.8045 40.172C25.6587 39.0707 25.6552 37.9466 25.8019 36.8287L27.4595 37.0462C27.3321 38.0173 27.3351 38.9945 27.4619 39.9526L25.8045 40.172ZM46.2971 48.6616C45.4023 49.3476 44.427 49.9066 43.4004 50.331L42.7617 48.7859C43.6549 48.4167 44.5027 47.9307 45.2799 47.3348L46.2971 48.6616ZM28.3389 46.2968C27.6529 45.402 27.0939 44.4267 26.6695 43.4001L28.2145 42.7614C28.5838 43.6546 29.0698 44.5024 29.6657 45.2796L28.3389 46.2968ZM40.1723 51.1959C39.071 51.3417 37.9469 51.3453 36.829 51.1986L37.0465 49.5409C38.0176 49.6684 38.9948 49.6654 39.9529 49.5385L40.1723 51.1959ZM32.0979 49.5894C31.6077 49.3064 31.1429 48.9956 30.7046 48.66L31.7208 47.3325C32.1019 47.6242 32.5064 47.8948 32.9339 48.1416C33.3613 48.3883 33.798 48.6034 34.2411 48.7876L33.5995 50.3314C33.0897 50.1196 32.5882 49.8725 32.0979 49.5894Z" fill="white"/>
<path fill-rule="evenodd" clip-rule="evenodd" d="M39.3109 62.9373L39.3109 64.103L37.6885 64.103L37.6885 62.9373L39.3109 62.9373ZM39.3109 58.2746L39.3109 60.6059L37.6885 60.6059L37.6885 58.2746L39.3109 58.2746ZM39.3109 53.6118L39.3109 55.9432L37.6885 55.9432L37.6885 53.6118L39.3109 53.6118ZM39.3109 50.1147L39.3109 51.2804L37.6885 51.2804L37.6885 50.1147L39.3109 50.1147Z" fill="white"/>
<path fill-rule="evenodd" clip-rule="evenodd" d="M39.3109 25.7196L39.3109 26.8853L37.6885 26.8853L37.6885 25.7196L39.3109 25.7196ZM39.3109 21.0568L39.3109 23.3882L37.6885 23.3882L37.6885 21.0568L39.3109 21.0568ZM39.3109 16.394L39.3109 18.7254L37.6885 18.7254L37.6885 16.394L39.3109 16.394ZM39.3109 12.8969L39.3109 14.0626L37.6885 14.0626L37.6885 12.8969L39.3109 12.8969Z" fill="white"/>
<path fill-rule="evenodd" clip-rule="evenodd" d="M14.0632 39.3114H12.8975V37.689H14.0632V39.3114ZM18.7259 39.3114H16.3945V37.689H18.7259V39.3114ZM23.3887 39.3114H21.0573V37.689H23.3887V39.3114ZM26.8858 39.3114H25.7201V37.689H26.8858V39.3114Z" fill="white"/>
<path fill-rule="evenodd" clip-rule="evenodd" d="M51.2809 39.3114H50.1152V37.689H51.2809V39.3114ZM55.9437 39.3114H53.6123V37.689H55.9437V39.3114ZM60.6065 39.3114H58.2751V37.689H60.6065V39.3114ZM64.1036 39.3114H62.9379V37.689H64.1036V39.3114Z" fill="white"/>
<path d="M38.5 5.64673L41.837 19.0314L35.1631 19.0314L38.5 5.64673Z" fill="#CF4949"/>
<path d="M38.5 71.3533L41.837 57.6644L35.1631 57.6644L38.5 71.3533Z" fill="white"/>
<path d="M71.3535 38.5L57.9688 41.837L57.9688 35.1631L71.3535 38.5Z" fill="white"/>
<path d="M5.64648 38.5L19.3354 41.837L19.3354 35.1631L5.64648 38.5Z" fill="white"/>
<path d="M44.1468 38.4999C44.1468 41.6185 41.6187 44.1466 38.5002 44.1466C35.3816 44.1466 32.8535 41.6185 32.8535 38.4999C32.8535 35.3814 35.3816 32.8533 38.5002 32.8533C41.6187 32.8533 44.1468 35.3814 44.1468 38.4999Z" fill="white"/>
<path d="M19.0242 21.3206C18.3906 21.9542 17.3633 21.9542 16.7298 21.3206L14.0933 18.6841C13.4597 18.0505 13.4597 17.0233 14.0933 16.3897L16.3896 14.0934C17.0232 13.4598 18.0504 13.4598 18.684 14.0934L21.3204 16.7299C21.954 17.3635 21.954 18.3907 21.3204 19.0243L19.0242 21.3206Z" fill="white"/>
<path d="M60.6101 62.9065C59.9765 63.5401 58.9493 63.5401 58.3157 62.9065L55.6792 60.27C55.0456 59.6365 55.0456 58.6092 55.6792 57.9756L57.9755 55.6794C58.6091 55.0458 59.6363 55.0458 60.2699 55.6794L62.9064 58.3158C63.54 58.9494 63.54 59.9766 62.9064 60.6102L60.6101 62.9065Z" fill="white"/>
<path d="M55.6794 19.0242C55.0458 18.3906 55.0458 17.3633 55.6794 16.7298L58.3159 14.0933C58.9495 13.4597 59.9767 13.4597 60.6103 14.0933L62.9066 16.3896C63.5402 17.0232 63.5402 18.0504 62.9066 18.684L60.2701 21.3204C59.6365 21.954 58.6093 21.954 57.9757 21.3204L55.6794 19.0242Z" fill="white"/>
<path d="M14.0935 60.6101C13.4599 59.9765 13.4599 58.9493 14.0935 58.3157L16.73 55.6792C17.3635 55.0456 18.3908 55.0456 19.0244 55.6792L21.3206 57.9755C21.9542 58.6091 21.9542 59.6363 21.3206 60.2699L18.6842 62.9064C18.0506 63.54 17.0234 63.54 16.3898 62.9064L14.0935 60.6101Z" fill="white"/>
</svg>
